[
  {
    "request": {
      "body": "",
      "headers": [],
      "method": "get",
      "options": [],
      "request_body": "",
      "url": "http://localhost:3000"
    },
    "response": {
      "binary": false,
      "body": "<html>\n  <head>\n    <script src=\"/packs/app-65a800a44fc2d8099289.js\"></script>\n    <link rel=\"stylesheet\" media=\"screen\" href=\"/packs/app-b1f73c20df81f5208c5d22604b034137.css\" />\n  </head>\n  <body></body>\n</html>",
      "headers": {
        "X-Frame-Options": "SAMEORIGIN",
        "X-XSS-Protection": "1; mode=block",
        "X-Content-Type-Options": "nosniff",
        "Content-Type": "text/html; charset=utf-8",
        "ETag": "W/\"f721077f52a42546f439c3fbf60690f0\"",
        "Cache-Control": "max-age=0, private, must-revalidate",
        "X-Request-Id": "f371d476-ceb8-4ecc-abc7-373a46e7ba51",
        "X-Runtime": "0.029779",
        "Transfer-Encoding": "chunked"
      },
      "status_code": 200,
      "type": "ok"
    }
  },
  {
    "request": {
      "body": "",
      "headers": {
        "Content-Type": "application/json",
        "Authorization": "Bearer "
      },
      "method": "get",
      "options": [],
      "request_body": "",
      "url": "http://localhost:3000/fizzbuzz?page=3&per_page=200"
    },
    "response": {
      "binary": false,
      "body": "{\"numbers\":[{\"value\":601,\"fizz\":false,\"buzz\":false},{\"value\":602,\"fizz\":false,\"buzz\":false},{\"value\":603,\"fizz\":true,\"buzz\":false},{\"value\":604,\"fizz\":false,\"buzz\":false},{\"value\":605,\"fizz\":false,\"buzz\":true},{\"value\":606,\"fizz\":true,\"buzz\":false},{\"value\":607,\"fizz\":false,\"buzz\":false},{\"value\":608,\"fizz\":false,\"buzz\":false},{\"value\":609,\"fizz\":true,\"buzz\":false},{\"value\":610,\"fizz\":false,\"buzz\":true},{\"value\":611,\"fizz\":false,\"buzz\":false},{\"value\":612,\"fizz\":true,\"buzz\":false},{\"value\":613,\"fizz\":false,\"buzz\":false},{\"value\":614,\"fizz\":false,\"buzz\":false},{\"value\":615,\"fizz\":true,\"buzz\":true},{\"value\":616,\"fizz\":false,\"buzz\":false},{\"value\":617,\"fizz\":false,\"buzz\":false},{\"value\":618,\"fizz\":true,\"buzz\":false},{\"value\":619,\"fizz\":false,\"buzz\":false},{\"value\":620,\"fizz\":false,\"buzz\":true},{\"value\":621,\"fizz\":true,\"buzz\":false},{\"value\":622,\"fizz\":false,\"buzz\":false},{\"value\":623,\"fizz\":false,\"buzz\":false},{\"value\":624,\"fizz\":true,\"buzz\":false},{\"value\":625,\"fizz\":false,\"buzz\":true},{\"value\":626,\"fizz\":false,\"buzz\":false},{\"value\":627,\"fizz\":true,\"buzz\":false},{\"value\":628,\"fizz\":false,\"buzz\":false},{\"value\":629,\"fizz\":false,\"buzz\":false},{\"value\":630,\"fizz\":true,\"buzz\":true},{\"value\":631,\"fizz\":false,\"buzz\":false},{\"value\":632,\"fizz\":false,\"buzz\":false},{\"value\":633,\"fizz\":true,\"buzz\":false},{\"value\":634,\"fizz\":false,\"buzz\":false},{\"value\":635,\"fizz\":false,\"buzz\":true},{\"value\":636,\"fizz\":true,\"buzz\":false},{\"value\":637,\"fizz\":false,\"buzz\":false},{\"value\":638,\"fizz\":false,\"buzz\":false},{\"value\":639,\"fizz\":true,\"buzz\":false},{\"value\":640,\"fizz\":false,\"buzz\":true},{\"value\":641,\"fizz\":false,\"buzz\":false},{\"value\":642,\"fizz\":true,\"buzz\":false},{\"value\":643,\"fizz\":false,\"buzz\":false},{\"value\":644,\"fizz\":false,\"buzz\":false},{\"value\":645,\"fizz\":true,\"buzz\":true},{\"value\":646,\"fizz\":false,\"buzz\":false},{\"value\":647,\"fizz\":false,\"buzz\":false},{\"value\":648,\"fizz\":true,\"buzz\":false},{\"value\":649,\"fizz\":false,\"buzz\":false},{\"value\":650,\"fizz\":false,\"buzz\":true},{\"value\":651,\"fizz\":true,\"buzz\":false},{\"value\":652,\"fizz\":false,\"buzz\":false},{\"value\":653,\"fizz\":false,\"buzz\":false},{\"value\":654,\"fizz\":true,\"buzz\":false},{\"value\":655,\"fizz\":false,\"buzz\":true},{\"value\":656,\"fizz\":false,\"buzz\":false},{\"value\":657,\"fizz\":true,\"buzz\":false},{\"value\":658,\"fizz\":false,\"buzz\":false},{\"value\":659,\"fizz\":false,\"buzz\":false},{\"value\":660,\"fizz\":true,\"buzz\":true},{\"value\":661,\"fizz\":false,\"buzz\":false},{\"value\":662,\"fizz\":false,\"buzz\":false},{\"value\":663,\"fizz\":true,\"buzz\":false},{\"value\":664,\"fizz\":false,\"buzz\":false},{\"value\":665,\"fizz\":false,\"buzz\":true},{\"value\":666,\"fizz\":true,\"buzz\":false},{\"value\":667,\"fizz\":false,\"buzz\":false},{\"value\":668,\"fizz\":false,\"buzz\":false},{\"value\":669,\"fizz\":true,\"buzz\":false},{\"value\":670,\"fizz\":false,\"buzz\":true},{\"value\":671,\"fizz\":false,\"buzz\":false},{\"value\":672,\"fizz\":true,\"buzz\":false},{\"value\":673,\"fizz\":false,\"buzz\":false},{\"value\":674,\"fizz\":false,\"buzz\":false},{\"value\":675,\"fizz\":true,\"buzz\":true},{\"value\":676,\"fizz\":false,\"buzz\":false},{\"value\":677,\"fizz\":false,\"buzz\":false},{\"value\":678,\"fizz\":true,\"buzz\":false},{\"value\":679,\"fizz\":false,\"buzz\":false},{\"value\":680,\"fizz\":false,\"buzz\":true},{\"value\":681,\"fizz\":true,\"buzz\":false},{\"value\":682,\"fizz\":false,\"buzz\":false},{\"value\":683,\"fizz\":false,\"buzz\":false},{\"value\":684,\"fizz\":true,\"buzz\":false},{\"value\":685,\"fizz\":false,\"buzz\":true},{\"value\":686,\"fizz\":false,\"buzz\":false},{\"value\":687,\"fizz\":true,\"buzz\":false},{\"value\":688,\"fizz\":false,\"buzz\":false},{\"value\":689,\"fizz\":false,\"buzz\":false},{\"value\":690,\"fizz\":true,\"buzz\":true},{\"value\":691,\"fizz\":false,\"buzz\":false},{\"value\":692,\"fizz\":false,\"buzz\":false},{\"value\":693,\"fizz\":true,\"buzz\":false},{\"value\":694,\"fizz\":false,\"buzz\":false},{\"value\":695,\"fizz\":false,\"buzz\":true},{\"value\":696,\"fizz\":true,\"buzz\":false},{\"value\":697,\"fizz\":false,\"buzz\":false},{\"value\":698,\"fizz\":false,\"buzz\":false},{\"value\":699,\"fizz\":true,\"buzz\":false},{\"value\":700,\"fizz\":false,\"buzz\":true},{\"value\":701,\"fizz\":false,\"buzz\":false},{\"value\":702,\"fizz\":true,\"buzz\":false},{\"value\":703,\"fizz\":false,\"buzz\":false},{\"value\":704,\"fizz\":false,\"buzz\":false},{\"value\":705,\"fizz\":true,\"buzz\":true},{\"value\":706,\"fizz\":false,\"buzz\":false},{\"value\":707,\"fizz\":false,\"buzz\":false},{\"value\":708,\"fizz\":true,\"buzz\":false},{\"value\":709,\"fizz\":false,\"buzz\":false},{\"value\":710,\"fizz\":false,\"buzz\":true},{\"value\":711,\"fizz\":true,\"buzz\":false},{\"value\":712,\"fizz\":false,\"buzz\":false},{\"value\":713,\"fizz\":false,\"buzz\":false},{\"value\":714,\"fizz\":true,\"buzz\":false},{\"value\":715,\"fizz\":false,\"buzz\":true},{\"value\":716,\"fizz\":false,\"buzz\":false},{\"value\":717,\"fizz\":true,\"buzz\":false},{\"value\":718,\"fizz\":false,\"buzz\":false},{\"value\":719,\"fizz\":false,\"buzz\":false},{\"value\":720,\"fizz\":true,\"buzz\":true},{\"value\":721,\"fizz\":false,\"buzz\":false},{\"value\":722,\"fizz\":false,\"buzz\":false},{\"value\":723,\"fizz\":true,\"buzz\":false},{\"value\":724,\"fizz\":false,\"buzz\":false},{\"value\":725,\"fizz\":false,\"buzz\":true},{\"value\":726,\"fizz\":true,\"buzz\":false},{\"value\":727,\"fizz\":false,\"buzz\":false},{\"value\":728,\"fizz\":false,\"buzz\":false},{\"value\":729,\"fizz\":true,\"buzz\":false},{\"value\":730,\"fizz\":false,\"buzz\":true},{\"value\":731,\"fizz\":false,\"buzz\":false},{\"value\":732,\"fizz\":true,\"buzz\":false},{\"value\":733,\"fizz\":false,\"buzz\":false},{\"value\":734,\"fizz\":false,\"buzz\":false},{\"value\":735,\"fizz\":true,\"buzz\":true},{\"value\":736,\"fizz\":false,\"buzz\":false},{\"value\":737,\"fizz\":false,\"buzz\":false},{\"value\":738,\"fizz\":true,\"buzz\":false},{\"value\":739,\"fizz\":false,\"buzz\":false},{\"value\":740,\"fizz\":false,\"buzz\":true},{\"value\":741,\"fizz\":true,\"buzz\":false},{\"value\":742,\"fizz\":false,\"buzz\":false},{\"value\":743,\"fizz\":false,\"buzz\":false},{\"value\":744,\"fizz\":true,\"buzz\":false},{\"value\":745,\"fizz\":false,\"buzz\":true},{\"value\":746,\"fizz\":false,\"buzz\":false},{\"value\":747,\"fizz\":true,\"buzz\":false},{\"value\":748,\"fizz\":false,\"buzz\":false},{\"value\":749,\"fizz\":false,\"buzz\":false},{\"value\":750,\"fizz\":true,\"buzz\":true},{\"value\":751,\"fizz\":false,\"buzz\":false},{\"value\":752,\"fizz\":false,\"buzz\":false},{\"value\":753,\"fizz\":true,\"buzz\":false},{\"value\":754,\"fizz\":false,\"buzz\":false},{\"value\":755,\"fizz\":false,\"buzz\":true},{\"value\":756,\"fizz\":true,\"buzz\":false},{\"value\":757,\"fizz\":false,\"buzz\":false},{\"value\":758,\"fizz\":false,\"buzz\":false},{\"value\":759,\"fizz\":true,\"buzz\":false},{\"value\":760,\"fizz\":false,\"buzz\":true},{\"value\":761,\"fizz\":false,\"buzz\":false},{\"value\":762,\"fizz\":true,\"buzz\":false},{\"value\":763,\"fizz\":false,\"buzz\":false},{\"value\":764,\"fizz\":false,\"buzz\":false},{\"value\":765,\"fizz\":true,\"buzz\":true},{\"value\":766,\"fizz\":false,\"buzz\":false},{\"value\":767,\"fizz\":false,\"buzz\":false},{\"value\":768,\"fizz\":true,\"buzz\":false},{\"value\":769,\"fizz\":false,\"buzz\":false},{\"value\":770,\"fizz\":false,\"buzz\":true},{\"value\":771,\"fizz\":true,\"buzz\":false},{\"value\":772,\"fizz\":false,\"buzz\":false},{\"value\":773,\"fizz\":false,\"buzz\":false},{\"value\":774,\"fizz\":true,\"buzz\":false},{\"value\":775,\"fizz\":false,\"buzz\":true},{\"value\":776,\"fizz\":false,\"buzz\":false},{\"value\":777,\"fizz\":true,\"buzz\":false},{\"value\":778,\"fizz\":false,\"buzz\":false},{\"value\":779,\"fizz\":false,\"buzz\":false},{\"value\":780,\"fizz\":true,\"buzz\":true},{\"value\":781,\"fizz\":false,\"buzz\":false},{\"value\":782,\"fizz\":false,\"buzz\":false},{\"value\":783,\"fizz\":true,\"buzz\":false},{\"value\":784,\"fizz\":false,\"buzz\":false},{\"value\":785,\"fizz\":false,\"buzz\":true},{\"value\":786,\"fizz\":true,\"buzz\":false},{\"value\":787,\"fizz\":false,\"buzz\":false},{\"value\":788,\"fizz\":false,\"buzz\":false},{\"value\":789,\"fizz\":true,\"buzz\":false},{\"value\":790,\"fizz\":false,\"buzz\":true},{\"value\":791,\"fizz\":false,\"buzz\":false},{\"value\":792,\"fizz\":true,\"buzz\":false},{\"value\":793,\"fizz\":false,\"buzz\":false},{\"value\":794,\"fizz\":false,\"buzz\":false},{\"value\":795,\"fizz\":true,\"buzz\":true},{\"value\":796,\"fizz\":false,\"buzz\":false},{\"value\":797,\"fizz\":false,\"buzz\":false},{\"value\":798,\"fizz\":true,\"buzz\":false},{\"value\":799,\"fizz\":false,\"buzz\":false},{\"value\":800,\"fizz\":false,\"buzz\":true}]}",
      "headers": {
        "Content-Type": "application/json; charset=utf-8",
        "ETag": "W/\"b098fa78eaa7f234a56e0460377a5a6d\"",
        "Cache-Control": "max-age=0, private, must-revalidate",
        "X-Request-Id": "e26ce605-9050-425b-a5e6-b48d1729a451",
        "X-Runtime": "0.025749",
        "Transfer-Encoding": "chunked"
      },
      "status_code": 200,
      "type": "ok"
    }
  }
]