[
  {
    "request": {
      "body": "",
      "headers": {
        "Authorization": "Bearer "
      },
      "method": "get",
      "options": [],
      "request_body": "",
      "url": "http://localhost:3000/fav"
    },
    "response": {
      "binary": false,
      "body": "",
      "headers": {
        "Cache-Control": "no-store",
        "Pragma": "no-cache",
        "WWW-Authenticate": "Bearer realm=\"Doorkeeper\", error=\"invalid_token\", error_description=\"The access token is invalid\"",
        "Content-Type": "text/html",
        "X-Request-Id": "8e1ab3c3-e867-41f0-a89e-96c043a1e8e8",
        "X-Runtime": "0.002854",
        "Transfer-Encoding": "chunked"
      },
      "status_code": 401,
      "type": "ok"
    }
  }
]